<?xml version="1.0" encoding="utf-8"?>
<COLLADA xmlns="http://www.collada.org/2005/11/COLLADASchema" version="1.4.1" xmlns:xsi="http://www.w3.org/2001/XMLSchema-instance">
  <asset>
    <contributor>
      <author>Blender User</author>
      <authoring_tool>Blender 2.79.0 commit date:2018-05-26, commit time:21:51, hash:32432d91bbe</authoring_tool>
    </contributor>
    <created>2018-08-12T13:00:40</created>
    <modified>2018-08-12T13:00:40</modified>
    <unit name="meter" meter="1"/>
    <up_axis>Z_UP</up_axis>
  </asset>
  <library_images/>
  <library_effects>
    <effect id="StreetlightMetal-effect">
      <profile_COMMON>
        <technique sid="common">
          <phong>
            <emission>
              <color sid="emission">0 0 0 1</color>
            </emission>
            <ambient>
              <color sid="ambient">0 0 0 1</color>
            </ambient>
            <diffuse>
              <color sid="diffuse">0.64 0.64 0.64 1</color>
            </diffuse>
            <specular>
              <color sid="specular">0.5 0.5 0.5 1</color>
            </specular>
            <shininess>
              <float sid="shininess">50</float>
            </shininess>
            <index_of_refraction>
              <float sid="index_of_refraction">1</float>
            </index_of_refraction>
          </phong>
        </technique>
      </profile_COMMON>
    </effect>
  </library_effects>
  <library_materials>
    <material id="StreetlightMetal-material" name="StreetlightMetal">
      <instance_effect url="#StreetlightMetal-effect"/>
    </material>
  </library_materials>
  <library_geometries>
    <geometry id="Streetlight-mesh" name="Streetlight">
      <mesh>
        <source id="Streetlight-mesh-positions">
          <float_array id="Streetlight-mesh-positions-array" count="222">1.582186 0.1459705 4.341485 1.582186 -0.1362711 4.341485 0.8735837 -0.1362711 4.215682 0.8735837 0.1459705 4.215682 1.553393 0.1459704 4.473014 1.553393 -0.1362712 4.473014 0.8447904 -0.1362711 4.377506 0.8447905 0.1459704 4.377506 1.017141 -0.1657225 4.240532 1.017141 0.1754219 4.240532 0.9883477 -0.1657225 4.425919 0.9883478 0.1754218 4.425919 1.437435 -0.1603091 4.314424 1.437435 0.1700085 4.314424 1.408641 -0.1603092 4.469516 1.408641 0.1700084 4.469516 0.07071065 0.07071065 0 0.09999996 0 0 0.07071065 -0.07071065 0 0 -0.1 0 -0.07071071 -0.07071065 0 -0.1 0 0 -0.07071071 0.07071065 0 0 0.1 0 0 0 0 0.07071065 0.07071065 1.178138 0.09999996 0 1.178138 0.07071065 -0.07071065 1.178138 0 -0.1 1.178138 -0.07071071 -0.07071065 1.178138 -0.1 0 1.178138 -0.07071071 0.07071065 1.178138 0 0.1 1.178138 0.04823946 0.04823946 1.24237 0.06822091 0 1.24237 0.04823946 -0.04823946 1.24237 0 -0.06822097 1.24237 -0.04823952 -0.04823946 1.24237 -0.06822097 0 1.24237 -0.04823952 0.04823946 1.24237 0 0.06822097 1.24237 0.04823946 0.04823946 4.003075 0.06822091 0 4.003075 0.04823946 -0.04823946 4.003075 0 -0.06822097 4.003075 -0.04823952 -0.04823946 4.003075 -0.06822097 0 4.003075 -0.04823952 0.04823946 4.003075 0 0.06822097 4.003075 0.09093022 0.04823946 4.09366 0.1072981 0 4.0822 0.09093022 -0.04823946 4.09366 0.05141472 -0.06822097 4.121329 0.01189923 -0.04823946 4.148998 -0.004468619 0 4.160459 0.01189923 0.04823946 4.148998 0.05141472 0.06822097 4.121329 0.1759077 0 4.120903 0.1725746 0.04823946 4.140605 0.1725746 -0.04823946 4.140605 0.1645278 -0.06822097 4.188169 0.156481 -0.04823946 4.235732 0.1531482 0 4.255434 0.156481 0.04823946 4.235732 0.1645278 0.06822097 4.188169 0.8700109 0 4.228875 0.8666778 0.04823952 4.248577 0.8666778 -0.04823946 4.248577 0.858631 -0.06822097 4.29614 0.8505842 -0.04823946 4.343704 0.8472514 0 4.363406 0.8505842 0.04823952 4.343704 0.858631 0.06822103 4.29614 0.858631 0 4.29614</float_array>
          <technique_common>
            <accessor source="#Streetlight-mesh-positions-array" count="74" stride="3">
              <param name="X" type="float"/>
              <param name="Y" type="float"/>
              <param name="Z" type="float"/>
            </accessor>
          </technique_common>
        </source>
        <source id="Streetlight-mesh-normals">
          <float_array id="Streetlight-mesh-normals-array" count="387">0.9768676 0 0.2138453 -0.9845366 0 -0.1751793 0.1705662 0 -0.9853463 -0.3195537 1.44157e-7 0.9475682 -0.1912585 -0.9810901 -0.0297054 -0.1912568 0.9810906 -0.02970457 0.183751 0 -0.9829729 0.1731582 0 -0.984894 -0.02415865 0 0.9997082 -0.1031769 0 0.994663 0.1574494 -0.9869254 0.0344668 0.01247197 -0.9999195 0.002314925 0.1574494 0.9869254 0.03446757 0.01247179 0.9999195 0.002315819 0 0 -1 0.9238796 0.3826833 0 0.9238796 -0.3826833 0 0.382684 -0.9238794 0 -0.3826838 -0.9238794 0 -0.9238796 -0.3826835 0 -0.9238796 0.3826835 0 -0.3826839 0.9238794 0 0.3826838 0.9238794 0 0.8402603 0.3480474 0.415723 0.8402603 -0.3480474 0.415723 0.3480474 -0.8402605 0.4157227 -0.3480485 -0.8402602 0.4157225 -0.8402603 -0.3480474 0.4157229 -0.8402603 0.3480474 0.4157229 -0.3480474 0.8402605 0.4157228 0.3480474 0.8402605 0.4157226 0.3826839 -0.9238793 0 -0.3826838 -0.9238794 0 -0.3826839 0.9238794 0 0.3826839 0.9238793 0 0.8470698 0.350869 -0.3992039 0.8470699 -0.3508689 -0.3992038 0.3774948 -0.9113507 -0.1641269 -0.3780111 -0.9125995 0.1557881 -0.8652714 -0.3584076 0.3504989 -0.8652718 0.3584071 0.3504983 -0.3570596 0.9210908 0.1552423 0.3774946 0.9113508 -0.1641272 0.4667176 0.3511978 -0.8116863 0.4667178 -0.3511979 -0.8116862 0.2106544 -0.9102399 -0.3564943 -0.2124879 -0.9107051 0.3542108 -0.4826726 -0.3540899 0.8010291 -0.4826715 0.3540901 0.8010297 -0.2062915 0.9140927 0.3491109 0.2106544 0.9102399 -0.3564943 0.1420085 0.3826543 -0.9129126 0.1420086 -0.3826542 -0.9129127 0.05882537 -0.9238671 -0.3781657 -0.05882519 -0.9238672 0.3781654 -0.1420087 -0.3826612 0.9129097 -0.1420089 0.3826613 0.9129096 -0.05882573 0.9238672 0.3781653 0.05882573 0.9238672 -0.3781655 0.9859898 0 0.1668063 0.9859896 0 0.1668067 0.985989 0 0.1668102 0.985989 0 0.1668109 0.98599 -6.79187e-6 0.1668046 0.98599 6.79187e-6 0.1668046 0.9859887 0 0.1668126 0.9859896 0 0.1668072 0.9768667 -7.84233e-7 0.2138493 -0.9845369 6.42417e-7 -0.1751776 0.1705672 0 -0.9853461 -0.3195527 0 0.9475686 -0.1950773 -0.9801735 -0.03471022 -0.1950784 0.9801733 -0.03470987 0.1837608 0 -0.982971 0.1731534 0 -0.9848949 -0.02414846 0 0.9997084 -0.1031805 0 0.9946627 0.1630325 -0.9861564 0.03026723 0.01267462 -0.9999178 0.001968324 0.1630327 0.9861563 0.03026801 0.01267474 0.9999178 0.00196886 0.9238796 0.3826833 0 0.9238796 -0.3826833 0 0.3826839 -0.9238794 0 -0.3826838 -0.9238795 0 -0.9238796 -0.3826833 0 -0.9238796 0.3826833 0 -0.3826839 0.9238794 0 0.3826838 0.9238794 0 0.8402608 0.348047 0.4157223 0.8402608 -0.348047 0.4157223 0.3480485 -0.84026 0.4157227 -0.3480473 -0.8402605 0.4157228 -0.8402608 -0.348047 0.4157224 -0.8402608 0.348047 0.4157224 -0.3480485 0.8402601 0.4157226 0.3480484 0.8402602 0.4157226 0.9238796 0.3826833 0 0.9238796 -0.3826833 0 0.3826841 -0.9238793 0 -0.3826839 -0.9238794 0 -0.9238798 -0.3826832 0 -0.9238798 0.3826832 0 -0.382684 0.9238793 0 0.3826839 0.9238794 0 0.8297609 0.3789017 -0.4097934 0.8297612 -0.3789013 -0.4097929 0.3504981 -0.9218819 -0.1651816 -0.3570595 -0.9210909 0.1552423 -0.8571748 -0.374775 0.3532636 -0.8571757 0.3747738 0.3532624 -0.3780115 0.9125994 0.155788 0.3504981 0.9218819 -0.1651816 0.4578027 0.3630725 -0.8115388 0.4578028 -0.3630725 -0.8115386 0.2013761 -0.9147626 -0.3502246 -0.2062937 -0.9140923 0.3491108 -0.4799546 -0.3599203 0.8000631 -0.4799544 0.3599204 0.8000633 -0.2124883 0.9107051 0.3542105 0.2013763 0.9147626 -0.3502243 0.1420077 0.3826546 -0.9129126 0.1420077 -0.3826546 -0.9129126 0.05882614 -0.9238672 -0.3781654 -0.05882614 -0.9238671 0.3781657 -0.1420072 -0.3826611 0.9129099 -0.1420071 0.3826614 0.9129098 -0.05882585 0.9238671 0.3781657 0.05882579 0.9238672 -0.3781653</float_array>
          <technique_common>
            <accessor source="#Streetlight-mesh-normals-array" count="129" stride="3">
              <param name="X" type="float"/>
              <param name="Y" type="float"/>
              <param name="Z" type="float"/>
            </accessor>
          </technique_common>
        </source>
        <vertices id="Streetlight-mesh-vertices">
          <input semantic="POSITION" source="#Streetlight-mesh-positions"/>
        </vertices>
        <triangles material="StreetlightMetal-material" count="140">
          <input semantic="VERTEX" source="#Streetlight-mesh-vertices" offset="0"/>
          <input semantic="NORMAL" source="#Streetlight-mesh-normals" offset="1"/>
          <p>4 0 1 0 0 0 2 1 7 1 3 1 8 2 3 2 9 2 11 3 6 3 10 3 6 4 8 4 10 4 9 5 7 5 11 5 0 6 12 6 13 6 8 7 13 7 12 7 15 8 5 8 4 8 11 9 14 9 15 9 5 10 12 10 1 10 14 11 8 11 12 11 13 12 4 12 0 12 9 13 15 13 13 13 24 14 16 14 17 14 17 14 18 14 24 14 19 14 24 14 18 14 19 14 20 14 24 14 20 14 21 14 24 14 22 14 24 14 21 14 22 14 23 14 24 14 16 14 24 14 23 14 25 15 17 15 16 15 17 16 27 16 18 16 27 17 19 17 18 17 19 18 29 18 20 18 20 19 30 19 21 19 30 20 22 20 21 20 22 21 32 21 23 21 16 22 32 22 25 22 33 23 26 23 25 23 26 24 35 24 27 24 27 25 36 25 28 25 29 26 36 26 37 26 29 27 38 27 30 27 38 28 31 28 30 28 31 29 40 29 32 29 40 30 25 30 32 30 41 15 34 15 33 15 34 16 43 16 35 16 43 31 36 31 35 31 36 32 45 32 37 32 37 19 46 19 38 19 46 20 39 20 38 20 39 33 48 33 40 33 48 34 33 34 40 34 49 35 42 35 41 35 42 36 51 36 43 36 43 37 52 37 44 37 44 38 53 38 45 38 45 39 54 39 46 39 54 40 47 40 46 40 48 41 55 41 56 41 56 42 41 42 48 42 58 43 50 43 49 43 50 44 59 44 51 44 51 45 60 45 52 45 52 46 61 46 53 46 53 47 62 47 54 47 62 48 55 48 54 48 56 49 63 49 64 49 64 50 49 50 56 50 66 51 57 51 58 51 57 52 67 52 59 52 59 53 68 53 60 53 60 54 69 54 61 54 61 55 70 55 62 55 70 56 63 56 62 56 64 57 71 57 72 57 72 58 58 58 64 58 66 59 73 59 65 59 67 60 65 60 73 60 67 61 73 61 68 61 69 62 68 62 73 62 70 63 69 63 73 63 70 64 73 64 71 64 72 65 71 65 73 65 72 66 73 66 66 66 4 67 5 67 1 67 2 68 6 68 7 68 8 69 2 69 3 69 11 70 7 70 6 70 6 71 2 71 8 71 9 72 3 72 7 72 0 73 1 73 12 73 8 74 9 74 13 74 15 75 14 75 5 75 11 76 10 76 14 76 5 77 14 77 12 77 14 78 10 78 8 78 13 79 15 79 4 79 9 80 11 80 15 80 25 81 26 81 17 81 17 82 26 82 27 82 27 83 28 83 19 83 19 84 28 84 29 84 20 85 29 85 30 85 30 86 31 86 22 86 22 87 31 87 32 87 16 88 23 88 32 88 33 89 34 89 26 89 26 90 34 90 35 90 27 91 35 91 36 91 29 92 28 92 36 92 29 93 37 93 38 93 38 94 39 94 31 94 31 95 39 95 40 95 40 96 33 96 25 96 41 97 42 97 34 97 34 98 42 98 43 98 43 99 44 99 36 99 36 100 44 100 45 100 37 101 45 101 46 101 46 102 47 102 39 102 39 103 47 103 48 103 48 104 41 104 33 104 49 105 50 105 42 105 42 106 50 106 51 106 43 107 51 107 52 107 44 108 52 108 53 108 45 109 53 109 54 109 54 110 55 110 47 110 48 111 47 111 55 111 56 112 49 112 41 112 58 113 57 113 50 113 50 114 57 114 59 114 51 115 59 115 60 115 52 116 60 116 61 116 53 117 61 117 62 117 62 118 63 118 55 118 56 119 55 119 63 119 64 120 58 120 49 120 66 121 65 121 57 121 57 122 65 122 67 122 59 123 67 123 68 123 60 124 68 124 69 124 61 125 69 125 70 125 70 126 71 126 63 126 64 127 63 127 71 127 72 128 66 128 58 128</p>
        </triangles>
      </mesh>
    </geometry>
  </library_geometries>
  <library_controllers/>
  <library_visual_scenes>
    <visual_scene id="Scene" name="Scene">
      <node id="Streetlight" name="Streetlight" type="NODE">
        <matrix sid="transform">1 0 0 0 0 1 0 0 0 0 1 0 0 0 0 1</matrix>
        <instance_geometry url="#Streetlight-mesh" name="Streetlight">
          <bind_material>
            <technique_common>
              <instance_material symbol="StreetlightMetal-material" target="#StreetlightMetal-material"/>
            </technique_common>
          </bind_material>
        </instance_geometry>
      </node>
    </visual_scene>
  </library_visual_scenes>
  <scene>
    <instance_visual_scene url="#Scene"/>
  </scene>
</COLLADA>