<?xml version="1.0" encoding="utf-8"?>
<COLLADA xmlns="http://www.collada.org/2005/11/COLLADASchema" version="1.4.1" xmlns:xsi="http://www.w3.org/2001/XMLSchema-instance">
  <asset>
    <contributor>
      <author>Blender User</author>
      <authoring_tool>Blender 2.79.0 commit date:2018-05-26, commit time:21:51, hash:32432d91bbe</authoring_tool>
    </contributor>
    <created>2018-08-12T17:41:39</created>
    <modified>2018-08-12T17:41:39</modified>
    <unit name="meter" meter="1"/>
    <up_axis>Z_UP</up_axis>
  </asset>
  <library_images/>
  <library_effects>
    <effect id="axe_wood-effect">
      <profile_COMMON>
        <technique sid="common">
          <phong>
            <emission>
              <color sid="emission">0 0 0 1</color>
            </emission>
            <ambient>
              <color sid="ambient">0 0 0 1</color>
            </ambient>
            <diffuse>
              <color sid="diffuse">0.6267318 0.4814489 0.2209697 1</color>
            </diffuse>
            <specular>
              <color sid="specular">0.3786992 0.3257028 0.1162781 1</color>
            </specular>
            <shininess>
              <float sid="shininess">50</float>
            </shininess>
            <index_of_refraction>
              <float sid="index_of_refraction">1</float>
            </index_of_refraction>
          </phong>
        </technique>
      </profile_COMMON>
    </effect>
    <effect id="axe_metal-effect">
      <profile_COMMON>
        <technique sid="common">
          <phong>
            <emission>
              <color sid="emission">0 0 0 1</color>
            </emission>
            <ambient>
              <color sid="ambient">0 0 0 1</color>
            </ambient>
            <diffuse>
              <color sid="diffuse">0.4394147 0.4394147 0.4394147 1</color>
            </diffuse>
            <specular>
              <color sid="specular">0.4079675 0.4079675 0.4079675 1</color>
            </specular>
            <shininess>
              <float sid="shininess">50</float>
            </shininess>
            <reflective>
              <color>0.230569 0.230569 0.230569 1</color>
            </reflective>
            <reflectivity>
              <float>0.1</float>
            </reflectivity>
            <index_of_refraction>
              <float sid="index_of_refraction">1</float>
            </index_of_refraction>
          </phong>
        </technique>
      </profile_COMMON>
    </effect>
  </library_effects>
  <library_materials>
    <material id="axe_wood-material" name="axe_wood">
      <instance_effect url="#axe_wood-effect"/>
    </material>
    <material id="axe_metal-material" name="axe_metal">
      <instance_effect url="#axe_metal-effect"/>
    </material>
  </library_materials>
  <library_geometries>
    <geometry id="Axe-mesh" name="Axe">
      <mesh>
        <source id="Axe-mesh-positions">
          <float_array id="Axe-mesh-positions-array" count="303">-3.204471 2.08616e-6 0.9506409 -2.880399 2.08616e-6 0.8926857 -4.494834 2.04891e-6 0.07082343 -4.438403 2.08616e-6 0.9797905 -2.287334 2.08616e-6 0.6638903 -1.422226 2.08616e-6 0.5019693 -0.2485522 2.08616e-6 0.4436419 2.218521 2.08616e-6 0.4007906 4.508396 2.05636e-6 0.2531095 4.672984 2.05636e-6 0.1560661 4.646842 -0.09747093 -0.2181115 4.615146 2.02656e-6 -0.5537415 4.453984 1.96695e-6 -0.6217361 2.784935 2.02656e-6 -0.2909879 -0.06965744 2.02656e-6 -0.2355243 -1.684657 2.02656e-6 -0.1574976 -2.4159 2.03401e-6 -0.1203874 -3.05126 2.03773e-6 -0.06132137 -3.310763 2.04123e-6 -0.002375841 -4.466619 -0.2915634 0.5253067 2.501728 -0.201601 0.05490112 -0.1591048 -0.201601 0.1040588 -1.553441 -0.201601 0.1722358 -2.351617 -0.201601 0.2717514 -2.965829 -0.2915634 0.4156822 -3.257617 -0.2915634 0.4741325 4.48119 -0.201601 -0.1843132 4.646842 -0.005205631 -0.2181115 -4.466619 2.08616e-6 0.5253067 4.630994 -0.09371888 -0.3859267 -4.480727 -0.2357462 0.2980652 2.643331 -0.1457839 -0.1180435 -0.1143811 -0.1457839 -0.06573277 -1.619049 -0.1457839 0.007369041 -2.383759 -0.1457839 0.07568204 -3.008544 -0.2357462 0.1771804 -3.28419 -0.2357462 0.2358782 4.467586 -0.1457839 -0.4030247 4.659913 -0.09746515 -0.03102272 -4.452511 -0.2394924 0.7525487 2.360124 -0.1495301 0.2278458 -0.2038285 -0.1495301 0.2738503 -1.487833 -0.1495301 0.3371025 -2.319476 -0.1495301 0.467821 -2.923114 -0.2394924 0.6541841 -3.231044 -0.2394924 0.7123869 4.494792 -0.1495302 0.03439807 -3.226222 -0.1627667 1.015733 -3.390939 -0.2127435 -0.163134 -3.404907 -0.1627667 1.032492 -3.544018 -0.2252377 -0.3165823 -3.039097 -0.2252377 -0.6004124 -2.729427 -3.4291e-4 -1.875063 -4.684415 -3.42806e-4 -1.804995 -4.541176 -0.1252844 -1.180118 -4.432539 -0.2127434 0.002605617 -4.370748 -0.1627667 1.037758 -4.320477 -0.1627667 1.054876 -4.337019 -0.1627667 1.176437 -3.483131 -0.1627667 1.178069 -3.358839 -0.3751677 0.452888 -4.401644 -0.3751677 0.5201821 -3.741477 -0.2127435 -0.05408394 -4.204521 -0.2127435 -0.003322601 -4.275338 -0.3751677 0.5389349 -3.582116 -0.3751677 0.5172373 -4.486858 -0.2252377 -0.5887562 -4.16361 -0.2252377 -0.4974753 -3.743184 -0.2252377 -0.4055678 -3.658405 -0.1252844 -1.03223 -4.115326 -0.1252844 -1.145305 -3.518256 -3.42925e-4 -1.898505 -4.185283 -3.42806e-4 -1.889586 -2.86414 -0.1252844 -0.9961435 -3.374889 -0.3002027 0.1448768 -4.417091 -0.3002027 0.2613939 -3.661796 -0.3002027 0.2315766 -4.239929 -0.3002027 0.2678062 -3.292531 -0.3002027 0.7343103 -4.386196 -0.3002026 0.7789703 -4.297908 -0.3002027 0.7969057 -3.493512 -0.3002027 0.7748649 -2.86414 -3.42791e-4 -0.9961435 -3.039097 -3.42791e-4 -0.6004124 -3.544018 -3.42746e-4 -0.3165823 -3.390939 -3.42746e-4 -0.163134 -3.374889 -3.42732e-4 0.1448768 -3.358839 -3.42717e-4 0.452888 -3.292531 -3.42657e-4 0.7343103 -3.226222 -3.42657e-4 1.015733 -3.483131 -3.42657e-4 1.178069 -4.337019 -3.42672e-4 1.176437 -4.320477 -3.42672e-4 1.054876 -3.404907 -3.42657e-4 1.032492 -4.541176 -3.42776e-4 -1.180118 -4.486858 -3.42746e-4 -0.5887562 -4.432539 -3.42672e-4 0.002605617 -4.417091 -3.42672e-4 0.2613939 -4.401644 -3.42672e-4 0.5201821 -4.386196 -3.42672e-4 0.7789703 -4.370748 -3.42672e-4 1.037758</float_array>
          <technique_common>
            <accessor source="#Axe-mesh-positions-array" count="101" stride="3">
              <param name="X" type="float"/>
              <param name="Y" type="float"/>
              <param name="Z" type="float"/>
            </accessor>
          </technique_common>
        </source>
        <source id="Axe-mesh-normals">
          <float_array id="Axe-mesh-normals-array" count="495">-0.03839749 -0.9674865 -0.249991 -0.03649145 -0.8661846 -0.49839 -0.03825271 -0.9688016 -0.2448678 0.1900373 -0.8805481 -0.43419 -0.07909506 -0.7353031 -0.6731072 0.04516237 -0.8299415 -0.5560192 -0.01499658 -0.9478849 -0.3182598 -0.01701521 -0.8683633 -0.4956367 -0.0207355 -0.7559337 -0.6543197 -0.02479857 -0.9498426 -0.3117436 -0.01146519 -0.9490222 -0.3150008 -0.03608638 -0.8702428 -0.4912995 0.07382464 -0.996856 -0.02877765 -0.003787517 -0.8867845 -0.4621678 -0.04396402 -0.7624949 -0.6454989 -0.02799171 -0.9739618 -0.2249773 0.07117146 -0.997333 -0.01617151 -3.76077e-4 -0.999994 0.003476738 -0.09530055 -0.7130101 -0.694647 -0.03206729 -0.8761173 -0.4810304 -0.0910387 -0.7129413 -0.6952889 -0.08899378 -0.7277225 -0.6800736 -0.04306203 -0.8051037 -0.591569 -0.001458942 -0.9999501 -0.009887754 -0.04299056 -0.6978253 -0.7149768 0.4672771 -0.8777115 -0.1061818 0.3177543 -0.9113486 -0.2616792 0.261342 -0.8089419 -0.5266057 0.9955706 7.76161e-6 -0.09401845 0.9966432 1.22146e-6 -0.08186864 0.9955705 6.28377e-6 -0.09401816 0.9966508 0 -0.08177578 -0.9980785 4.4419e-6 0.06196308 -0.9980785 2.64526e-6 0.06196391 -0.9980785 1.13509e-6 0.06196302 -0.9980785 0 0.06196302 0.1629254 -0.816178 0.5543543 0.02338117 -0.8680655 0.4958989 0.2049157 -0.9029475 0.3777505 0.02180993 -0.953112 0.301831 0.328449 -0.9438986 0.03430497 0.02167665 -0.7473413 0.6640866 0.01608389 -0.8720184 0.4892089 0.009109854 -0.9553619 0.2952978 0.07104521 -0.7526879 0.6545331 0.02379089 -0.747131 0.664251 0.05388557 -0.8788457 0.4740535 0.19379 -0.7794799 0.5956985 0.1553919 -0.8992312 0.4089457 0.03127574 -0.9575428 0.28659 0.07283908 -0.7072503 0.7032009 0.1889198 -0.7084144 0.6800428 0.07101368 -0.7074369 0.7031999 0.1637455 -0.8788752 0.448069 0.02327865 -0.9772142 0.2109756 0.009124875 -0.9751104 0.2215322 0.02261483 -0.6918162 0.7217194 0.02382194 -0.6888498 0.7245127 0.3514642 -0.806148 0.4760235 0.4368259 -0.8707706 0.2257029 0.9975683 0 -0.06969559 0.9975684 0 -0.06969559 -0.9980786 0 0.06196218 -0.9980785 0 0.06196302 -0.008609294 -0.9893912 -0.145021 -0.00367707 -0.9986447 -0.05191606 -0.02872365 -0.9911746 -0.1294138 0.01624298 -0.9979362 -0.06212651 0.01229691 -0.987676 -0.1560287 0.02299845 -0.9874578 -0.1561997 0.01760458 -0.9959662 -0.08798599 0.00418359 -0.9851087 -0.1718821 -0.0101999 -0.9817363 -0.1899739 0.001228809 -0.9996241 0.02739048 -0.03777086 -0.9918833 -0.1214129 -0.001429796 -0.989989 -0.1411377 0.007759511 -0.9890528 -0.147358 -0.008729577 -0.984864 -0.1731087 -0.03201454 -0.9814739 -0.1889029 0.007717132 -0.9831093 -0.1828569 0.004163682 -0.9901269 -0.1401119 -0.04644781 -0.9638747 -0.2622753 -0.008188426 -0.9999026 -0.01130747 0.00163114 -0.9994561 0.03294003 -0.07741886 -0.9641802 -0.2536983 0.01365053 -0.964846 -0.2624615 -0.003860235 -0.9566588 -0.2911859 0.02896314 -0.9631162 -0.2675227 0.01089704 -0.9535405 -0.301068 -0.145052 -0.8776047 0.4569135 -0.05251991 -0.9356802 0.3489187 -0.1545841 -0.8775035 0.4539731 -0.07099115 -0.9299363 0.360803 -0.01741957 -0.9599885 0.2794973 -0.01256704 0.8824491 -0.47024 -0.04614555 0.8876639 -0.458174 -0.01290661 0.8820214 -0.4710326 0.03729718 -0.964437 0.2616685 -0.0382564 0.8925349 -0.4493528 -0.07313203 0.8949809 -0.4400693 0.04966706 -0.9679606 0.2461413 0.988457 0 0.1515023 0.9598918 0 0.2803709 0.9555534 0 0.2948181 0.9146023 0 0.4043546 0.9146023 0 0.4043546 0.4900144 0 0.8717144 0.4900145 0 0.8717144 0.7079581 0 -0.7062544 0.7079582 0 -0.7062544 0.7079582 0 -0.7062544 0.9986452 0 -0.05203747 0.9986451 0 -0.05203783 0.9986451 0 -0.05203789 0.9899731 0 -0.1412561 0.9900462 0 -0.1407434 0.9733466 0 -0.2293391 -0.9733464 0 0.2293402 -0.9733464 0 0.2293402 -0.9733464 0 0.2293401 -0.02444088 0 -0.9997014 -0.024441 0 -0.9997013 -0.02444082 0 -0.9997014 0.8808836 0 0.4733331 0.8808836 0 0.4733331 0.8808836 0 0.4733331 -0.001910865 0 0.9999983 -0.001910924 0 0.9999983 -0.001910924 0 0.9999983 -0.9908684 0 -0.1348333 -0.9908684 0 -0.1348333 -0.9908683 0 -0.1348334 0 1 0 0 1 0 0 1 0 -0.09338122 0 -0.9956305 -0.09338122 0 -0.9956305 -0.3223392 0 0.9466242 -0.3223392 0 0.9466242 -0.9982232 0 0.05958604 -0.9982233 0 0.05958604 -0.9982233 0 0.05958598 -0.9982232 0 0.05958604 -0.9982233 0 0.05958604 -0.9982232 0 0.05958676 -0.9972474 0 0.07414656 -0.9982232 0 0.05958694 -0.997143 0 0.07553762 -0.9958081 0 0.09146767 -0.9958081 0 0.09146767 -0.9886596 1.21094e-6 0.1501739 -0.9874708 1.36879e-6 0.1578027 -0.9747195 2.73146e-6 0.2234326 -0.01235884 -0.9712364 -0.2377969 -0.04438298 -0.6946901 -0.7179387 -0.04161506 -0.9590129 0.2802898 -0.04040217 0.9015588 -0.4307662 0.7079581 0 -0.7062545 0.9986451 0 -0.05203747 0.9733466 0 -0.229339 -0.9733464 0 0.2293403 -0.02444106 0 -0.9997013 -0.001910865 0 0.9999982 -0.9908684 0 -0.1348332 0 1 0</float_array>
          <technique_common>
            <accessor source="#Axe-mesh-normals-array" count="165" stride="3">
              <param name="X" type="float"/>
              <param name="Y" type="float"/>
              <param name="Z" type="float"/>
            </accessor>
          </technique_common>
        </source>
        <vertices id="Axe-mesh-vertices">
          <input semantic="POSITION" source="#Axe-mesh-positions"/>
        </vertices>
        <triangles material="axe_wood-material" count="72">
          <input semantic="VERTEX" source="#Axe-mesh-vertices" offset="0"/>
          <input semantic="NORMAL" source="#Axe-mesh-normals" offset="1"/>
          <p>26 0 31 1 37 2 37 3 13 4 12 5 20 6 32 7 31 1 31 1 14 8 13 4 22 9 32 7 21 10 33 11 14 8 32 7 23 12 33 11 22 9 34 13 15 14 33 11 36 15 24 16 25 17 18 18 35 19 36 20 23 12 35 19 34 13 34 13 17 21 16 22 19 23 36 15 25 17 30 24 18 18 36 20 10 25 37 3 29 26 37 3 11 27 29 26 11 28 27 29 29 30 29 30 27 29 10 31 2 32 30 33 28 34 30 33 19 35 28 34 8 36 40 37 46 38 46 38 20 39 26 40 7 41 41 42 40 37 40 37 21 43 20 39 5 44 41 42 6 45 42 46 21 43 41 42 4 47 42 46 5 44 43 48 22 49 42 46 45 50 1 51 0 52 25 17 44 53 45 54 4 47 44 53 43 48 43 48 24 16 23 12 25 17 39 55 19 23 45 50 3 56 39 57 9 58 46 38 38 59 38 59 26 40 10 25 10 31 27 29 38 60 38 60 27 29 9 61 19 35 39 62 28 34 39 62 3 63 28 34 26 0 20 6 31 1 37 3 31 1 13 4 20 6 21 10 32 7 31 1 32 7 14 8 22 9 33 11 32 7 33 11 15 14 14 8 23 12 34 13 33 11 34 13 16 22 15 14 36 15 35 19 24 16 18 18 17 21 35 19 23 12 24 16 35 19 34 13 35 19 17 21 19 23 30 153 36 15 30 24 2 154 18 18 10 25 26 40 37 3 37 3 12 5 11 27 8 36 7 41 40 37 46 38 40 37 20 39 7 41 6 45 41 42 40 37 41 42 21 43 5 44 42 46 41 42 42 46 22 49 21 43 4 47 43 48 42 46 43 48 23 12 22 49 45 50 44 53 1 51 25 17 24 16 44 53 4 47 1 51 44 53 43 48 44 53 24 16 25 17 45 54 39 55 45 50 0 52 3 56 9 58 8 36 46 38 38 59 46 38 26 40</p>
        </triangles>
        <triangles material="axe_metal-material" count="85">
          <input semantic="VERTEX" source="#Axe-mesh-vertices" offset="0"/>
          <input semantic="NORMAL" source="#Axe-mesh-normals" offset="1"/>
          <p>63 64 68 65 62 66 67 67 69 68 68 65 70 69 66 70 54 71 68 65 51 72 50 73 62 66 50 73 48 74 55 75 67 67 63 64 70 69 71 76 69 68 72 77 54 71 53 78 73 79 51 72 69 68 73 79 71 76 52 80 76 81 60 82 65 83 62 66 74 84 76 81 64 85 76 81 65 83 63 64 76 81 77 86 61 87 77 86 64 85 55 75 77 86 75 88 56 89 80 90 57 91 79 92 64 93 80 90 57 94 81 95 80 96 80 90 65 83 81 97 49 98 78 99 81 95 81 97 60 82 78 100 52 101 82 102 73 103 73 103 83 104 51 105 51 106 84 106 50 107 48 108 84 109 85 110 48 111 86 112 74 113 74 113 87 114 60 115 87 114 78 116 60 115 47 117 88 118 78 119 92 120 49 121 57 122 93 123 59 124 49 125 59 126 91 127 58 128 91 129 57 130 58 131 92 132 90 133 93 134 49 135 89 135 47 136 57 137 100 137 56 138 56 139 99 140 79 141 79 141 98 142 61 143 98 142 75 144 61 143 55 145 97 146 96 147 55 145 95 148 66 149 54 150 95 148 94 151 53 152 54 150 94 151 63 64 67 67 68 65 67 67 70 69 69 68 70 69 67 67 66 70 68 65 69 68 51 72 62 66 68 65 50 73 55 75 66 70 67 67 70 69 72 77 71 76 72 77 70 69 54 71 73 79 69 68 71 76 76 81 74 84 60 82 62 66 48 74 74 84 64 85 77 86 76 81 63 64 62 66 76 81 61 87 75 88 77 86 55 75 63 64 77 86 56 89 79 92 80 90 79 92 61 155 64 93 57 94 49 98 81 95 80 90 64 93 65 83 49 98 47 156 78 99 81 97 65 83 60 82 73 103 82 102 83 104 51 106 83 107 84 106 48 108 50 157 84 109 48 111 85 158 86 112 74 113 86 112 87 114 87 114 88 159 78 116 47 117 89 160 88 118 92 120 93 161 49 121 93 123 90 123 59 124 59 126 90 162 91 127 91 129 92 163 57 130 92 132 91 164 90 133 49 135 93 135 89 135 57 137 92 138 100 137 56 139 100 139 99 140 79 141 99 140 98 142 98 142 97 146 75 144 55 145 75 144 97 146 55 145 96 147 95 148 54 150 66 149 95 148</p>
        </triangles>
      </mesh>
    </geometry>
  </library_geometries>
  <library_controllers/>
  <library_visual_scenes>
    <visual_scene id="Scene" name="Scene">
      <node id="Axe" name="Axe" type="NODE">
        <matrix sid="transform">0.08432923 0 0 0 0 0.08432923 0 0 0 0 0.08432923 0 0 0 0 1</matrix>
        <instance_geometry url="#Axe-mesh" name="Axe">
          <bind_material>
            <technique_common>
              <instance_material symbol="axe_wood-material" target="#axe_wood-material"/>
              <instance_material symbol="axe_metal-material" target="#axe_metal-material"/>
            </technique_common>
          </bind_material>
        </instance_geometry>
      </node>
    </visual_scene>
  </library_visual_scenes>
  <scene>
    <instance_visual_scene url="#Scene"/>
  </scene>
</COLLADA>