{
	"color": "#ffffffff",
	"description": "Age 21, Waitress, Female",
	"display_name": "",
	"display_name_bool": false,
	"id": "character-1653571209.json",
	"mirror_portraits": false,
	"name": "Lin",
	"nickname": "",
	"nickname_bool": false,
	"offset_x": 0,
	"offset_y": 0,
	"portraits": [
		{
			"name": "Default",
			"path": ""
		}
	],
	"scale": 100,
	"theme": ""
}
