<?xml version="1.0" encoding="utf-8"?>
<COLLADA xmlns="http://www.collada.org/2005/11/COLLADASchema" version="1.4.1" xmlns:xsi="http://www.w3.org/2001/XMLSchema-instance">
  <asset>
    <contributor>
      <author>Blender User</author>
      <authoring_tool>Blender 2.79.0 commit date:2018-05-26, commit time:21:51, hash:32432d91bbe</authoring_tool>
    </contributor>
    <created>2018-08-12T13:31:35</created>
    <modified>2018-08-12T13:31:35</modified>
    <unit name="meter" meter="1"/>
    <up_axis>Z_UP</up_axis>
  </asset>
  <library_images/>
  <library_effects>
    <effect id="bin-effect">
      <profile_COMMON>
        <technique sid="common">
          <phong>
            <emission>
              <color sid="emission">0 0 0 1</color>
            </emission>
            <ambient>
              <color sid="ambient">0 0 0 1</color>
            </ambient>
            <diffuse>
              <color sid="diffuse">0.5769736 0.7808887 0.008965839 1</color>
            </diffuse>
            <specular>
              <color sid="specular">0.4381165 0.5 0.2420611 1</color>
            </specular>
            <shininess>
              <float sid="shininess">50</float>
            </shininess>
            <index_of_refraction>
              <float sid="index_of_refraction">1</float>
            </index_of_refraction>
          </phong>
        </technique>
        <extra>
          <technique profile="GOOGLEEARTH">
            <double_sided sid="double_sided" type="int">1</double_sided>
          </technique>
        </extra>
      </profile_COMMON>
      <extra><technique profile="MAX3D"><double_sided>1</double_sided></technique></extra>
    </effect>
  </library_effects>
  <library_materials>
    <material id="bin-material" name="bin">
      <instance_effect url="#bin-effect"/>
    </material>
  </library_materials>
  <library_geometries>
    <geometry id="bin-mesh" name="bin">
      <mesh>
        <source id="bin-mesh-positions">
          <float_array id="bin-mesh-positions-array" count="75">0.1400533 0.424629 -0.1400534 0.1913164 0.424629 -0.05126309 0.1913164 0.424629 0.05126309 0.1400533 0.424629 0.1400534 0.05126309 0.424629 0.1913164 -0.05126303 0.424629 0.1913164 -0.1400533 0.424629 0.1400534 -0.1913164 0.424629 0.05126315 -0.1913164 0.424629 -0.05126297 -0.1400535 0.424629 -0.1400533 -0.05126321 0.424629 -0.1913164 0.05126297 0.424629 -0.1913166 0.08692485 0 -0.08692491 0.1187416 0 -0.03181672 0.1187416 0 0.03181666 0.08692485 -1.29675e-7 0.08692485 0.03181672 -1.29675e-7 0.1187415 -0.03181666 -1.29675e-7 0.1187416 -0.08692485 -1.29675e-7 0.08692491 -0.1187415 0 0.03181672 -0.1187416 0 -0.03181666 -0.08692497 0 -0.08692485 -0.03181678 0 -0.1187416 0.0318166 0 -0.1187416 0 -1.6614e-7 0</float_array>
          <technique_common>
            <accessor source="#bin-mesh-positions-array" count="25" stride="3">
              <param name="X" type="float"/>
              <param name="Y" type="float"/>
              <param name="Z" type="float"/>
            </accessor>
          </technique_common>
        </source>
        <source id="bin-mesh-normals">
          <float_array id="bin-mesh-normals-array" count="108">0.8536472 -0.1684707 -0.4928532 -0.9857067 0.1684706 0 0.8536472 -0.1684706 0.492853 -0.4928532 0.1684707 -0.8536472 0 -0.1684707 0.9857067 0.4928528 0.1684707 -0.8536473 0.853647 0.1684707 -0.4928534 0.9857068 0.1684706 -9.51286e-7 0.8536476 0.1684706 0.4928523 0.4928542 0.1684706 0.8536466 -1.01215e-6 -0.1684706 -0.9857067 0.492853 -0.1684708 -0.8536472 5.31914e-7 -1 -3.07101e-7 -6.14201e-7 1 0 6.85464e-7 -1 -2.65957e-7 -1.5355e-7 1 -2.65957e-7 0 -1 3.07101e-7 1.5355e-7 1 -2.65957e-7 6.85465e-7 1 2.65957e-7 6.14202e-7 1 0 5.31914e-7 1 3.07101e-7 3.07101e-7 1 5.31914e-7 0 -1 -6.14202e-7 3.071e-7 -1 -5.31914e-7 0.8536468 -0.1684706 -0.4928537 -0.9857068 0.1684706 0 0.8536469 -0.1684707 0.4928535 -0.4928529 0.1684707 -0.8536474 1.08718e-6 -0.1684705 0.9857067 0.4928535 0.1684705 -0.8536469 0.8536469 0.1684709 -0.4928534 0.9857068 0.1684707 0 0.8536474 0.1684706 0.4928528 0.4928537 0.1684707 0.8536469 0 -0.1684709 -0.9857066 0.4928526 -0.1684707 -0.8536474</float_array>
          <technique_common>
            <accessor source="#bin-mesh-normals-array" count="36" stride="3">
              <param name="X" type="float"/>
              <param name="Y" type="float"/>
              <param name="Z" type="float"/>
            </accessor>
          </technique_common>
        </source>
        <vertices id="bin-mesh-vertices">
          <input semantic="POSITION" source="#bin-mesh-positions"/>
        </vertices>
        <triangles material="bin-material" count="36">
          <input semantic="VERTEX" source="#bin-mesh-vertices" offset="0"/>
          <input semantic="NORMAL" source="#bin-mesh-normals" offset="1"/>
          <p>1 0 12 0 0 0 1 1 14 1 2 1 3 2 14 2 2 2 4 3 15 3 16 3 5 4 16 4 4 4 5 5 18 5 6 5 6 6 19 6 7 6 8 7 19 7 20 7 8 8 21 8 9 8 10 9 21 9 22 9 11 10 22 10 10 10 0 11 23 11 11 11 12 12 13 12 24 12 14 13 13 13 24 13 14 14 15 14 24 14 16 15 15 15 24 15 16 16 17 16 24 16 18 17 17 17 24 17 19 18 18 18 24 18 20 19 19 19 24 19 21 20 20 20 24 20 22 21 21 21 24 21 22 22 23 22 24 22 23 23 12 23 24 23 1 24 13 24 12 24 1 25 13 25 14 25 3 26 15 26 14 26 4 27 3 27 15 27 5 28 17 28 16 28 5 29 17 29 18 29 6 30 18 30 19 30 8 31 7 31 19 31 8 32 20 32 21 32 10 33 9 33 21 33 11 34 23 34 22 34 0 35 12 35 23 35</p>
        </triangles>
      </mesh>
      <extra><technique profile="MAYA"><double_sided>1</double_sided></technique></extra>
    </geometry>
  </library_geometries>
  <library_controllers/>
  <library_visual_scenes>
    <visual_scene id="Scene" name="Scene">
      <node id="bin" name="bin" type="NODE">
        <matrix sid="transform">1 0 0 0 0 -4.37114e-8 -1 0 0 1 -4.37114e-8 0 0 0 0 1</matrix>
        <instance_geometry url="#bin-mesh" name="bin">
          <bind_material>
            <technique_common>
              <instance_material symbol="bin-material" target="#bin-material"/>
            </technique_common>
          </bind_material>
        </instance_geometry>
      </node>
    </visual_scene>
  </library_visual_scenes>
  <scene>
    <instance_visual_scene url="#Scene"/>
  </scene>
</COLLADA>